An Overview of readODS
…
Chung-hong Chan 1

library(readODS)

You probably only need to use two functions from this package: read_ods and write_ods.

Write the data PlantGrowth (from the built-in datasets package) as a new file plant.ods in the current working directory of the user’s session.

write_ods(PlantGrowth, "plant.ods")

You can then read it back from plant.ods

read_ods("plant.ods")
#> # A tibble: 30 × 2
#>    weight group
#>     <dbl> <chr>
#>  1   4.17 ctrl 
#>  2   5.58 ctrl 
#>  3   5.18 ctrl 
#>  4   6.11 ctrl 
#>  5   4.5  ctrl 
#>  6   4.61 ctrl 
#>  7   5.17 ctrl 
#>  8   4.53 ctrl 
#>  9   5.33 ctrl 
#> 10   5.14 ctrl 
#> # ℹ 20 more rows

Update and Append

You can append another sheet into an existing ods file with the sheet name being “mtcars_ods”.

write_ods(mtcars, "plant.ods", sheet = "mtcars_ods", append = TRUE)

Read from a specific sheet. Notice row names are missing.

read_ods("plant.ods", sheet = "mtcars_ods")
#> # A tibble: 32 × 11
#>      mpg   cyl  disp    hp  drat    wt  qsec    vs    am  gear  carb
#>    <dbl> <dbl> <dbl> <dbl> <dbl> <dbl> <dbl> <dbl> <dbl> <dbl> <dbl>
#>  1  21       6  160    110  3.9   2.62  16.5     0     1     4     4
#>  2  21       6  160    110  3.9   2.88  17.0     0     1     4     4
#>  3  22.8     4  108     93  3.85  2.32  18.6     1     1     4     1
#>  4  21.4     6  258    110  3.08  3.22  19.4     1     0     3     1
#>  5  18.7     8  360    175  3.15  3.44  17.0     0     0     3     2
#>  6  18.1     6  225    105  2.76  3.46  20.2     1     0     3     1
#>  7  14.3     8  360    245  3.21  3.57  15.8     0     0     3     4
#>  8  24.4     4  147.    62  3.69  3.19  20       1     0     4     2
#>  9  22.8     4  141.    95  3.92  3.15  22.9     1     0     4     2
#> 10  19.2     6  168.   123  3.92  3.44  18.3     1     0     4     4
#> # ℹ 22 more rows

You can also integer for sheet, e.g. 2 for the second sheet.

read_ods("plant.ods", sheet = 2)
#> # A tibble: 32 × 11
#>      mpg   cyl  disp    hp  drat    wt  qsec    vs    am  gear  carb
#>    <dbl> <dbl> <dbl> <dbl> <dbl> <dbl> <dbl> <dbl> <dbl> <dbl> <dbl>
#>  1  21       6  160    110  3.9   2.62  16.5     0     1     4     4
#>  2  21       6  160    110  3.9   2.88  17.0     0     1     4     4
#>  3  22.8     4  108     93  3.85  2.32  18.6     1     1     4     1
#>  4  21.4     6  258    110  3.08  3.22  19.4     1     0     3     1
#>  5  18.7     8  360    175  3.15  3.44  17.0     0     0     3     2
#>  6  18.1     6  225    105  2.76  3.46  20.2     1     0     3     1
#>  7  14.3     8  360    245  3.21  3.57  15.8     0     0     3     4
#>  8  24.4     4  147.    62  3.69  3.19  20       1     0     4     2
#>  9  22.8     4  141.    95  3.92  3.15  22.9     1     0     4     2
#> 10  19.2     6  168.   123  3.92  3.44  18.3     1     0     4     4
#> # ℹ 22 more rows

Update an existing sheet and preserve row names

write_ods(mtcars, "plant.ods", sheet = "mtcars_ods", update = TRUE, row_names = TRUE)

Notice the information from the sheet mtcars_ods is updated.

read_ods("plant.ods", sheet = "mtcars_ods")
#> New names:
#> • `` -> `...1`
#> # A tibble: 32 × 12
#>    ...1          mpg   cyl  disp    hp  drat    wt  qsec    vs    am  gear  carb
#>    <chr>       <dbl> <dbl> <dbl> <dbl> <dbl> <dbl> <dbl> <dbl> <dbl> <dbl> <dbl>
#>  1 Mazda RX4    21       6  160    110  3.9   2.62  16.5     0     1     4     4
#>  2 Mazda RX4 …  21       6  160    110  3.9   2.88  17.0     0     1     4     4
#>  3 Datsun 710   22.8     4  108     93  3.85  2.32  18.6     1     1     4     1
#>  4 Hornet 4 D…  21.4     6  258    110  3.08  3.22  19.4     1     0     3     1
#>  5 Hornet Spo…  18.7     8  360    175  3.15  3.44  17.0     0     0     3     2
#>  6 Valiant      18.1     6  225    105  2.76  3.46  20.2     1     0     3     1
#>  7 Duster 360   14.3     8  360    245  3.21  3.57  15.8     0     0     3     4
#>  8 Merc 240D    24.4     4  147.    62  3.69  3.19  20       1     0     4     2
#>  9 Merc 230     22.8     4  141.    95  3.92  3.15  22.9     1     0     4     2
#> 10 Merc 280     19.2     6  168.   123  3.92  3.44  18.3     1     0     4     4
#> # ℹ 22 more rows
…
list_ods_sheets("plant.ods")
#> [1] "Sheet1"     "mtcars_ods"

readODS 2.0.0

Starting from 2.0.0, write_ods writes NA as empty by default.

PlantGrowth2 <- tibble::as_tibble(PlantGrowth)
PlantGrowth2[1,1] <- NA
PlantGrowth2$group <- as.character(PlantGrowth2$group)

## NA is preseved; weight is still <dbl>
read_ods(write_ods(PlantGrowth2))
#> # A tibble: 30 × 2
#>    weight group
#>     <dbl> <chr>
#>  1  NA    ctrl 
#>  2   5.58 ctrl 
#>  3   5.18 ctrl 
#>  4   6.11 ctrl 
#>  5   4.5  ctrl 
#>  6   4.61 ctrl 
#>  7   5.17 ctrl 
#>  8   4.53 ctrl 
#>  9   5.33 ctrl 
#> 10   5.14 ctrl 
#> # ℹ 20 more rows

If you want NA to be written literally as the string “NA”, use na_as_string. You should literally see the string “NA” when the file is opened with LibreOffice, for example.

But the string “NA” messes up the automatic type inference of read_ods.

## NA is preseved; but weight is now <chr>
read_ods(write_ods(PlantGrowth2, na_as_string = TRUE))
#> # A tibble: 30 × 2
#>    weight group
#>    <chr>  <chr>
#>  1 NA     ctrl 
#>  2 5.58   ctrl 
#>  3 5.18   ctrl 
#>  4 6.11   ctrl 
#>  5 4.5    ctrl 
#>  6 4.61   ctrl 
#>  7 5.17   ctrl 
#>  8 4.53   ctrl 
#>  9 5.33   ctrl 
#> 10 5.14   ctrl 
#> # ℹ 20 more rows

Of course you can fix this by specifying col_types.

## NA is preseved; but weight is now <chr>
read_ods(write_ods(PlantGrowth2, na_as_string = TRUE),
         col_types = readr::cols(weight = readr::col_double()))
#> Warning: [0, 1]: expected a double, but got 'NA'
#> # A tibble: 30 × 2
#>    weight group
#>     <dbl> <chr>
#>  1  NA    ctrl 
#>  2   5.58 ctrl 
#>  3   5.18 ctrl 
#>  4   6.11 ctrl 
#>  5   4.5  ctrl 
#>  6   4.61 ctrl 
#>  7   5.17 ctrl 
#>  8   4.53 ctrl 
#>  9   5.33 ctrl 
#> 10   5.14 ctrl 
#> # ℹ 20 more rows
…
